{
  "configVersion": 2,
  "packages": [
    {
      "name": "archive",
      "rootUri": "file:///root/snap/flutter/common/flutter/.pub-cache/hosted/pub.dartlang.org/archive-2.0.13",
      "packageUri": "lib/",
      "languageVersion": "2.0"
    },
    {
      "name": "args",
      "rootUri": "file:///root/snap/flutter/common/flutter/.pub-cache/hosted/pub.dartlang.org/args-1.6.0",
      "packageUri": "lib/",
      "languageVersion": "2.3"
    },
    {
      "name": "async",
      "rootUri": "file:///root/snap/flutter/common/flutter/.pub-cache/hosted/pub.dartlang.org/async-2.4.2",
      "packageUri": "lib/",
      "languageVersion": "2.2"
    },
    {
      "name": "audioplayers",
      "rootUri": "file:///root/snap/flutter/common/flutter/.pub-cache/hosted/pub.dartlang.org/audioplayers-0.15.1",
      "packageUri": "lib/",
      "languageVersion": "2.6"
    },
    {
      "name": "boolean_selector",
      "rootUri": "file:///root/snap/flutter/common/flutter/.pub-cache/hosted/pub.dartlang.org/boolean_selector-2.0.0",
      "packageUri": "lib/",
      "languageVersion": "2.4"
    },
    {
      "name": "box2d_flame",
      "rootUri": "../plugins/flame/plugin/box2d_flame-0.4.5",
      "packageUri": "lib/",
      "languageVersion": "2.2"
    },
    {
      "name": "characters",
      "rootUri": "file:///root/snap/flutter/common/flutter/.pub-cache/hosted/pub.dartlang.org/characters-1.0.0",
      "packageUri": "lib/",
      "languageVersion": "2.6"
    },
    {
      "name": "charcode",
      "rootUri": "file:///root/snap/flutter/common/flutter/.pub-cache/hosted/pub.dartlang.org/charcode-1.1.3",
      "packageUri": "lib/",
      "languageVersion": "2.0"
    },
    {
      "name": "clock",
      "rootUri": "file:///root/snap/flutter/common/flutter/.pub-cache/hosted/pub.dartlang.org/clock-1.0.1",
      "packageUri": "lib/",
      "languageVersion": "2.0"
    },
    {
      "name": "collection",
      "rootUri": "file:///root/snap/flutter/common/flutter/.pub-cache/hosted/pub.dartlang.org/collection-1.14.13",
      "packageUri": "lib/",
      "languageVersion": "2.3"
    },
    {
      "name": "control_pad",
      "rootUri": "../plugins/control_pad",
      "packageUri": "lib/",
      "languageVersion": "2.2"
    },
    {
      "name": "convert",
      "rootUri": "file:///root/snap/flutter/common/flutter/.pub-cache/hosted/pub.dartlang.org/convert-2.1.1",
      "packageUri": "lib/",
      "languageVersion": "1.17"
    },
    {
      "name": "crypto",
      "rootUri": "file:///root/snap/flutter/common/flutter/.pub-cache/hosted/pub.dartlang.org/crypto-2.1.4",
      "packageUri": "lib/",
      "languageVersion": "2.1"
    },
    {
      "name": "cupertino_icons",
      "rootUri": "file:///root/snap/flutter/common/flutter/.pub-cache/hosted/pub.dartlang.org/cupertino_icons-0.1.3",
      "packageUri": "lib/",
      "languageVersion": "2.0"
    },
    {
      "name": "draggable_fab",
      "rootUri": "file:///root/snap/flutter/common/flutter/.pub-cache/hosted/pub.dartlang.org/draggable_fab-0.1.1",
      "packageUri": "lib/",
      "languageVersion": "2.1"
    },
    {
      "name": "expressions",
      "rootUri": "file:///root/snap/flutter/common/flutter/.pub-cache/hosted/pub.dartlang.org/expressions-0.1.5",
      "packageUri": "lib/",
      "languageVersion": "2.0"
    },
    {
      "name": "fake_async",
      "rootUri": "file:///root/snap/flutter/common/flutter/.pub-cache/hosted/pub.dartlang.org/fake_async-1.1.0",
      "packageUri": "lib/",
      "languageVersion": "2.2"
    },
    {
      "name": "file",
      "rootUri": "file:///root/snap/flutter/common/flutter/.pub-cache/hosted/pub.dartlang.org/file-5.2.1",
      "packageUri": "lib/",
      "languageVersion": "2.2"
    },
    {
      "name": "flame",
      "rootUri": "../plugins/flame",
      "packageUri": "lib/",
      "languageVersion": "2.6"
    },
    {
      "name": "flare_dart",
      "rootUri": "file:///root/snap/flutter/common/flutter/.pub-cache/hosted/pub.dartlang.org/flare_dart-2.3.4",
      "packageUri": "lib/",
      "languageVersion": "2.1"
    },
    {
      "name": "flare_flutter",
      "rootUri": "file:///root/snap/flutter/common/flutter/.pub-cache/hosted/pub.dartlang.org/flare_flutter-2.0.5",
      "packageUri": "lib/",
      "languageVersion": "2.2"
    },
    {
      "name": "flutter",
      "rootUri": "file:///root/snap/flutter/common/flutter/packages/flutter",
      "packageUri": "lib/",
      "languageVersion": "2.9"
    },
    {
      "name": "flutter_archive",
      "rootUri": "file:///root/snap/flutter/common/flutter/.pub-cache/hosted/pub.dartlang.org/flutter_archive-1.0.2",
      "packageUri": "lib/",
      "languageVersion": "2.6"
    },
    {
      "name": "flutter_launcher_icons",
      "rootUri": "file:///root/snap/flutter/common/flutter/.pub-cache/hosted/pub.dartlang.org/flutter_launcher_icons-0.7.5",
      "packageUri": "lib/",
      "languageVersion": "2.2"
    },
    {
      "name": "flutter_test",
      "rootUri": "file:///root/snap/flutter/common/flutter/packages/flutter_test",
      "packageUri": "lib/",
      "languageVersion": "2.2"
    },
    {
      "name": "flutter_web_plugins",
      "rootUri": "file:///root/snap/flutter/common/flutter/packages/flutter_web_plugins",
      "packageUri": "lib/",
      "languageVersion": "2.0"
    },
    {
      "name": "font_awesome_flutter",
      "rootUri": "file:///root/snap/flutter/common/flutter/.pub-cache/hosted/pub.dartlang.org/font_awesome_flutter-8.8.1",
      "packageUri": "lib/",
      "languageVersion": "2.0"
    },
    {
      "name": "image",
      "rootUri": "file:///root/snap/flutter/common/flutter/.pub-cache/hosted/pub.dartlang.org/image-2.1.12",
      "packageUri": "lib/",
      "languageVersion": "2.0"
    },
    {
      "name": "intl",
      "rootUri": "file:///root/snap/flutter/common/flutter/.pub-cache/hosted/pub.dartlang.org/intl-0.16.1",
      "packageUri": "lib/",
      "languageVersion": "2.5"
    },
    {
      "name": "logger",
      "rootUri": "file:///root/snap/flutter/common/flutter/.pub-cache/hosted/pub.dartlang.org/logger-0.9.2",
      "packageUri": "lib/",
      "languageVersion": "2.2"
    },
    {
      "name": "matcher",
      "rootUri": "file:///root/snap/flutter/common/flutter/.pub-cache/hosted/pub.dartlang.org/matcher-0.12.8",
      "packageUri": "lib/",
      "languageVersion": "2.4"
    },
    {
      "name": "meta",
      "rootUri": "file:///root/snap/flutter/common/flutter/.pub-cache/hosted/pub.dartlang.org/meta-1.1.8",
      "packageUri": "lib/",
      "languageVersion": "1.12"
    },
    {
      "name": "mic_stream",
      "rootUri": "file:///root/snap/flutter/common/flutter/.pub-cache/hosted/pub.dartlang.org/mic_stream-0.2.1",
      "packageUri": "lib/",
      "languageVersion": "2.1"
    },
    {
      "name": "ordered_set",
      "rootUri": "file:///root/snap/flutter/common/flutter/.pub-cache/hosted/pub.dartlang.org/ordered_set-2.0.0",
      "packageUri": "lib/",
      "languageVersion": "2.0"
    },
    {
      "name": "path",
      "rootUri": "file:///root/snap/flutter/common/flutter/.pub-cache/hosted/pub.dartlang.org/path-1.7.0",
      "packageUri": "lib/",
      "languageVersion": "2.0"
    },
    {
      "name": "path_provider",
      "rootUri": "file:///root/snap/flutter/common/flutter/.pub-cache/hosted/pub.dartlang.org/path_provider-1.6.11",
      "packageUri": "lib/",
      "languageVersion": "2.1"
    },
    {
      "name": "path_provider_linux",
      "rootUri": "file:///root/snap/flutter/common/flutter/.pub-cache/hosted/pub.dartlang.org/path_provider_linux-0.0.1+2",
      "packageUri": "lib/",
      "languageVersion": "2.1"
    },
    {
      "name": "path_provider_macos",
      "rootUri": "file:///root/snap/flutter/common/flutter/.pub-cache/hosted/pub.dartlang.org/path_provider_macos-0.0.4+3",
      "packageUri": "lib/",
      "languageVersion": "2.1"
    },
    {
      "name": "path_provider_platform_interface",
      "rootUri": "file:///root/snap/flutter/common/flutter/.pub-cache/hosted/pub.dartlang.org/path_provider_platform_interface-1.0.2",
      "packageUri": "lib/",
      "languageVersion": "2.1"
    },
    {
      "name": "permission",
      "rootUri": "file:///root/snap/flutter/common/flutter/.pub-cache/hosted/pub.dartlang.org/permission-0.1.7",
      "packageUri": "lib/",
      "languageVersion": "2.1"
    },
    {
      "name": "petitparser",
      "rootUri": "file:///root/snap/flutter/common/flutter/.pub-cache/hosted/pub.dartlang.org/petitparser-2.4.0",
      "packageUri": "lib/",
      "languageVersion": "2.4"
    },
    {
      "name": "platform",
      "rootUri": "file:///root/snap/flutter/common/flutter/.pub-cache/hosted/pub.dartlang.org/platform-2.2.1",
      "packageUri": "lib/",
      "languageVersion": "1.24"
    },
    {
      "name": "plugin_platform_interface",
      "rootUri": "file:///root/snap/flutter/common/flutter/.pub-cache/hosted/pub.dartlang.org/plugin_platform_interface-1.0.2",
      "packageUri": "lib/",
      "languageVersion": "2.1"
    },
    {
      "name": "process",
      "rootUri": "file:///root/snap/flutter/common/flutter/.pub-cache/hosted/pub.dartlang.org/process-3.0.13",
      "packageUri": "lib/",
      "languageVersion": "2.0"
    },
    {
      "name": "quiver",
      "rootUri": "file:///root/snap/flutter/common/flutter/.pub-cache/hosted/pub.dartlang.org/quiver-2.1.3",
      "packageUri": "lib/",
      "languageVersion": "2.0"
    },
    {
      "name": "rename",
      "rootUri": "file:///root/snap/flutter/common/flutter/.pub-cache/hosted/pub.dartlang.org/rename-1.2.0",
      "packageUri": "lib/",
      "languageVersion": "2.4"
    },
    {
      "name": "sensors",
      "rootUri": "file:///root/snap/flutter/common/flutter/.pub-cache/hosted/pub.dartlang.org/sensors-0.4.2+2",
      "packageUri": "lib/",
      "languageVersion": "2.1"
    },
    {
      "name": "sky_engine",
      "rootUri": "file:///root/snap/flutter/common/flutter/bin/cache/pkg/sky_engine",
      "packageUri": "lib/",
      "languageVersion": "1.11"
    },
    {
      "name": "source_span",
      "rootUri": "file:///root/snap/flutter/common/flutter/.pub-cache/hosted/pub.dartlang.org/source_span-1.7.0",
      "packageUri": "lib/",
      "languageVersion": "2.6"
    },
    {
      "name": "stack_trace",
      "rootUri": "file:///root/snap/flutter/common/flutter/.pub-cache/hosted/pub.dartlang.org/stack_trace-1.9.5",
      "packageUri": "lib/",
      "languageVersion": "2.0"
    },
    {
      "name": "stream_channel",
      "rootUri": "file:///root/snap/flutter/common/flutter/.pub-cache/hosted/pub.dartlang.org/stream_channel-2.0.0",
      "packageUri": "lib/",
      "languageVersion": "2.0"
    },
    {
      "name": "string_scanner",
      "rootUri": "file:///root/snap/flutter/common/flutter/.pub-cache/hosted/pub.dartlang.org/string_scanner-1.0.5",
      "packageUri": "lib/",
      "languageVersion": "2.0"
    },
    {
      "name": "synchronized",
      "rootUri": "file:///root/snap/flutter/common/flutter/.pub-cache/hosted/pub.dartlang.org/synchronized-2.2.0+2",
      "packageUri": "lib/",
      "languageVersion": "2.8"
    },
    {
      "name": "term_glyph",
      "rootUri": "file:///root/snap/flutter/common/flutter/.pub-cache/hosted/pub.dartlang.org/term_glyph-1.1.0",
      "packageUri": "lib/",
      "languageVersion": "1.8"
    },
    {
      "name": "test_api",
      "rootUri": "file:///root/snap/flutter/common/flutter/.pub-cache/hosted/pub.dartlang.org/test_api-0.2.17",
      "packageUri": "lib/",
      "languageVersion": "2.7"
    },
    {
      "name": "typed_data",
      "rootUri": "file:///root/snap/flutter/common/flutter/.pub-cache/hosted/pub.dartlang.org/typed_data-1.2.0",
      "packageUri": "lib/",
      "languageVersion": "2.4"
    },
    {
      "name": "uuid",
      "rootUri": "file:///root/snap/flutter/common/flutter/.pub-cache/hosted/pub.dartlang.org/uuid-2.2.0",
      "packageUri": "lib/",
      "languageVersion": "2.0"
    },
    {
      "name": "vector_math",
      "rootUri": "file:///root/snap/flutter/common/flutter/.pub-cache/hosted/pub.dartlang.org/vector_math-2.0.8",
      "packageUri": "lib/",
      "languageVersion": "2.0"
    },
    {
      "name": "xdg_directories",
      "rootUri": "file:///root/snap/flutter/common/flutter/.pub-cache/hosted/pub.dartlang.org/xdg_directories-0.1.0",
      "packageUri": "lib/",
      "languageVersion": "2.3"
    },
    {
      "name": "xml",
      "rootUri": "file:///root/snap/flutter/common/flutter/.pub-cache/hosted/pub.dartlang.org/xml-3.6.1",
      "packageUri": "lib/",
      "languageVersion": "2.6"
    },
    {
      "name": "yaml",
      "rootUri": "file:///root/snap/flutter/common/flutter/.pub-cache/hosted/pub.dartlang.org/yaml-2.2.1",
      "packageUri": "lib/",
      "languageVersion": "2.4"
    },
    {
      "name": "Newgame",
      "rootUri": "../",
      "packageUri": "lib/",
      "languageVersion": "2.7"
    }
  ],
  "generated": "2020-12-05T07:00:11.844600Z",
  "generator": "pub",
  "generatorVersion": "2.9.2"
}
